{
  "config": {
    "inputs" : 1,
    "outputs" : 1,
    "nodes" : 50,
    "maxArity" : 2,
    "mutationProbability" : 0.1,
    "recursiveConnectionProbability": 0.1,
    "memoryLength" : 1
  },
  "samples": [
    {"input" : [1],"output": [0]},
    {"input" : [1],"output": [1]},
    {"input" : [1],"output": [1]},
    {"input" : [1],"output": [2]},
    {"input" : [1],"output": [3]},
    {"input" : [1],"output": [5]},
    {"input" : [1],"output": [8]},
    {"input" : [1],"output": [13]},
    {"input" : [1],"output": [21]},
    {"input" : [1],"output": [34]},
    {"input" : [1],"output": [55]},
    {"input" : [1],"output": [89]},
    {"input" : [1],"output": [144]},
    {"input" : [1],"output": [233]},
    {"input" : [1],"output": [377]},
    {"input" : [1],"output": [610]},
    {"input" : [1],"output": [987]},
    {"input" : [1],"output": [1597]},
    {"input" : [1],"output": [2584]},
    {"input" : [1],"output": [4181]},
    {"input" : [1],"output": [6765]},
    {"input" : [1],"output": [10946]},
    {"input" : [1],"output": [17711]},
    {"input" : [1],"output": [28657]},
    {"input" : [1],"output": [46368]},
    {"input" : [1],"output": [75025]},
    {"input" : [1],"output": [121393]},
    {"input" : [1],"output": [196418]},
    {"input" : [1],"output": [317811]},
    {"input" : [1],"output": [514229]},
    {"input" : [1],"output": [832040]},
    {"input" : [1],"output": [1346269]},
    {"input" : [1],"output": [2178309]},
    {"input" : [1],"output": [3524578]},
    {"input" : [1],"output": [5702887]},
    {"input" : [1],"output": [9227465]},
    {"input" : [1],"output": [14930352]},
    {"input" : [1],"output": [24157817]},
    {"input" : [1],"output": [39088169]}]
}